[
	{
		"title": "Мне не спится",
		"name": "example_1.jpg",
		"description": "Это длинное описание динного текста для данный конкретной фоторгафии одной актрисы по имени Катя Голубева",
    "child": [
      {
        "title": "test",
        "name": "example_1.jpg",
        "description": "test"
      },
      {
        "title": "aaa",
        "name": "example_1.jpg",
        "description": "aaa"
      }
    ]
	},
	{
		"title": "29 Palms",
		"name": "example_2.jpg",
		"description": "Это длинное описание динного текста для данный конкретной фоторгафии одной актрисы по имени Катя Голубева"
	},
	{
		"title": "Мне не спится",
		"name": "example_3.jpg",
		"description": "Это длинное описание динного текста для данный конкретной фоторгафии одной актрисы по имени Катя Голубева"
	},
	{
		"title": "Мне не спится",
		"name": "example_4.jpg",
		"description": "Это длинное описание динного текста для данный конкретной фоторгафии одной актрисы по имени Катя Голубева"
	},
	{
		"title": "Pola X",
		"name": "example_5.jpg",
		"description": "Это длинное описание динного текста для данный конкретной фоторгафии одной актрисы по имени Катя Голубева"
	},
	{
		"title": "Pola X",
		"name": "example_6.jpg",
		"description": "Это длинное описание динного текста для данный конкретной фоторгафии одной актрисы по имени Катя Голубева"
	}
]
